<svg width="228" height="225" viewBox="0 0 228 225" fill="none" xmlns="http://www.w3.org/2000/svg">
<g filter="url(#filter0_d)">
<path d="M196.413 127.24C196.413 127.24 191.718 120.017 176.924 121.828C162.131 123.638 130.376 129.747 117.732 131.925C105.088 134.104 85.6287 148.142 81.3011 157.184C76.9735 166.227 80.2168 171.619 107.644 173.062C135.072 174.504 172.916 152.13 184.863 145.237C196.81 138.344 195.687 130.841 196.413 127.24Z" fill="#444444" stroke="#444444" stroke-linecap="round" stroke-linejoin="round"/>
<path d="M122.37 25.7011C122.37 25.7011 114.702 40.4653 111.865 43.3116C110.356 44.9662 108.509 46.2784 106.45 47.1601C104.391 48.0418 102.167 48.4725 99.9281 48.4234C94.2548 48.4234 74.0497 45.732 67.234 58.8019C60.4183 71.8718 58.7434 110.626 59.0338 112.902C59.3243 115.177 41.7041 130.231 42.2753 148.723C42.8465 167.214 62.4417 177.69 89.995 173.72C117.548 169.751 124.645 149.284 124.645 137.357C124.645 125.429 130.608 118.894 137.143 106.376C143.678 93.8582 153.331 80.8174 150.204 69.7322C147.077 58.647 135.159 53.5352 131.18 52.112C127.201 50.6888 138.567 37.5899 135.72 31.0937C132.874 24.5975 127.201 22.0028 122.37 25.7011Z" fill="#747CA5"/>
<path opacity="0.13" d="M121.45 107.77C109.358 112.253 99.3665 108.07 86.0739 104.188C72.7813 100.306 78.4546 90.7504 78.4546 80.9044C78.4546 71.0584 66.837 84.4865 66.837 84.4865L60.3407 91.3216C59.5343 98.4874 59.1045 105.691 59.0531 112.901C59.3048 114.935 45.2571 127.181 42.6915 142.914C49.2179 143.674 55.7841 144.039 62.3545 144.008C89.6754 144.008 122.311 129.979 125.497 123.406C128.488 117.219 133.377 102.107 133.948 100.296C133.639 101.051 131.867 103.907 121.45 107.77Z" fill="#444444"/>
<path d="M122.37 25.7011C122.37 25.7011 114.702 40.4653 111.865 43.3116C110.356 44.9662 108.509 46.2784 106.45 47.1601C104.391 48.0418 102.167 48.4725 99.9281 48.4234C94.2548 48.4234 74.0497 45.732 67.234 58.8019C60.4183 71.8718 58.7434 110.626 59.0338 112.902C59.3243 115.177 41.7041 130.231 42.2753 148.723C42.8465 167.214 62.4417 177.69 89.995 173.72C117.548 169.751 124.645 149.284 124.645 137.357C124.645 125.429 130.608 118.894 137.143 106.376C143.678 93.8582 153.331 80.8174 150.204 69.7322C147.077 58.647 135.159 53.5352 131.18 52.112C127.201 50.6888 138.567 37.5899 135.72 31.0937C132.874 24.5975 127.201 22.0028 122.37 25.7011Z" stroke="#444444" stroke-linecap="round" stroke-linejoin="round"/>
<path d="M141.403 83.3635C141.403 83.3635 134.868 87.6233 134.297 91.5927C133.726 95.5621 135.149 104.091 129.756 108.642C124.364 113.192 120.385 113.182 120.385 113.182" stroke="#444444" stroke-linecap="round" stroke-linejoin="round"/>
<path d="M71.9585 97.4304C71.9585 97.4304 71.9585 107.673 84.1764 108.458" stroke="#444444" stroke-linecap="round" stroke-linejoin="round"/>
<path d="M109.406 82.8406C111.193 87.0591 112.64 91.4134 113.734 95.8621" stroke="#444444" stroke-linecap="round" stroke-linejoin="round"/>
<path d="M125.061 132.187C126.503 123.26 131.615 116.948 137.143 106.366C138.015 104.692 138.954 103.007 139.902 101.313C134.733 103.336 133.881 102.019 133.881 102.019C131.431 107.731 128.159 109.91 128.159 109.91L119.262 134.394L125.061 132.187Z" fill="white" stroke="#444444" stroke-linecap="round" stroke-linejoin="round"/>
<path d="M45.6346 133.397C43.3585 138.172 42.2091 143.405 42.2752 148.694C42.8367 167.156 62.4415 177.661 89.9948 173.691C117.548 169.722 124.645 149.255 124.645 137.328C124.627 133.663 125.26 130.025 126.513 126.582C74.6788 138.17 53.8348 136.244 45.6346 133.397Z" fill="#444444" stroke="#444444" stroke-linecap="round" stroke-linejoin="round"/>
<path d="M105.079 111.992L97.9821 96.5014C97.9287 96.3857 97.853 96.2817 97.7594 96.1952C97.6658 96.1088 97.5561 96.0416 97.4365 95.9976C97.195 95.9086 96.9281 95.9192 96.6944 96.0271C96.4608 96.1349 96.2795 96.3311 96.1906 96.5726C96.1016 96.8141 96.1122 97.081 96.22 97.3147L103.326 112.747L105.079 111.992Z" fill="white" stroke="#444444" stroke-linecap="round" stroke-linejoin="round"/>
<path d="M103.326 112.795L105.04 114.209L105.079 111.992L103.326 112.795Z" stroke="#444444" stroke-linecap="round" stroke-linejoin="round"/>
<path d="M96.6945 96.0751C96.5787 96.1283 96.4744 96.2038 96.3878 96.2974C96.3012 96.391 96.2339 96.5008 96.1898 96.6204C96.1457 96.74 96.1257 96.8672 96.1309 96.9946C96.1361 97.122 96.1665 97.2471 96.2201 97.3628L96.9366 98.9215L98.6986 98.1179L97.9822 96.5495C97.929 96.4336 97.8535 96.3294 97.7599 96.2428C97.6663 96.1562 97.5566 96.0889 97.4369 96.0448C97.3173 96.0007 97.1901 95.9807 97.0627 95.9859C96.9353 95.9911 96.8102 96.0214 96.6945 96.0751Z" fill="white" stroke="#444444" stroke-linecap="round" stroke-linejoin="round"/>
<path d="M94.8162 50.1271C91.1216 48.8536 87.189 48.4222 83.3061 48.8644C79.4232 49.3067 75.6884 50.6113 72.3747 52.683C61.0184 59.7795 50.9207 80.8753 46.6609 88.2622C42.4011 95.6491 28.2662 127.24 31.5095 127.956C33.1941 128.334 86.2966 118.275 90.8468 118.013C95.3971 117.752 101.632 114.886 101.632 114.886C101.632 114.886 104.478 118.013 105.901 116.59C107.325 115.167 103.336 107.79 101.351 105.514C99.3665 103.239 96.8106 102.387 95.3874 103.53C93.9642 104.672 85.1638 112.901 85.1638 112.901L50.9885 111.72L79.2001 74.8341" fill="#747CA5"/>
<path opacity="0.13" d="M99.3374 108.071C95.0001 104.44 91.9021 110.113 88.3974 112.979C84.8927 115.845 78.8516 115.525 60.3988 115.525C41.946 115.525 41.2974 116.164 39.7096 117.113C38.1219 118.062 42.8948 103.753 54.6674 90.3827C66.44 77.0127 73.7591 65.8888 73.7591 57.2917C73.7591 54.5228 72.791 53.4191 71.5034 53.2449C60.4859 60.8351 50.7852 81.0692 46.6318 88.2625C42.372 95.6494 28.2372 127.24 31.4804 127.956C33.165 128.334 86.2675 118.275 90.8178 118.013C95.368 117.752 101.603 114.886 101.603 114.886C102.009 115.315 102.45 115.71 102.92 116.068C103.375 113.289 102.116 110.385 99.3374 108.071Z" fill="#444444"/>
<path d="M94.8162 50.1271C91.1216 48.8536 87.189 48.4222 83.3061 48.8644C79.4232 49.3067 75.6884 50.6113 72.3747 52.683C61.0184 59.7795 50.9207 80.8753 46.6609 88.2622C42.4011 95.6491 28.2662 127.24 31.5095 127.956C33.1941 128.334 86.2966 118.275 90.8468 118.013C95.3971 117.752 101.632 114.886 101.632 114.886C101.632 114.886 104.478 118.013 105.901 116.59C107.325 115.167 103.336 107.79 101.351 105.514C99.3665 103.239 96.8106 102.387 95.3874 103.53C93.9642 104.672 85.1638 112.901 85.1638 112.901L50.9885 111.72L79.2001 74.8341" stroke="#444444" stroke-linecap="round" stroke-linejoin="round"/>
<path d="M101.632 114.886C101.632 114.886 104.478 118.014 105.902 116.59C107.325 115.167 103.336 107.79 101.351 105.515C99.3666 103.24 96.8107 102.388 95.3875 103.53C93.9643 104.673 85.1639 112.902 85.1639 112.902L50.9886 111.721L59.5373 100.539C53.9101 99.2479 48.6498 96.6956 44.1535 93.0742C38.5286 104.479 28.7504 127.346 31.5096 127.927C33.1942 128.305 86.2967 118.246 90.8469 117.984C95.3972 117.723 101.632 114.886 101.632 114.886Z" fill="white"/>
<path d="M99.3375 108.07C95.0002 104.44 91.9022 110.113 88.3975 112.979C84.8928 115.844 78.8517 115.525 60.3989 115.525C41.9461 115.525 41.2975 116.164 39.7097 117.113C38.3737 117.916 41.5395 107.906 49.6041 96.7818C47.6678 95.7312 45.8333 94.5028 44.1245 93.1125C38.4996 104.517 28.7213 127.385 31.4805 127.966C33.1651 128.343 86.2676 118.284 90.8179 118.023C95.3681 117.761 101.603 114.896 101.603 114.896C102.01 115.324 102.45 115.719 102.92 116.077C103.375 113.289 102.116 110.384 99.3375 108.07Z" fill="#747CA5"/>
<path opacity="0.7" d="M99.3375 108.07C95.0002 104.44 91.9022 110.113 88.3975 112.979C84.8928 115.844 78.8517 115.525 60.3989 115.525C41.9461 115.525 41.2975 116.164 39.7097 117.113C38.3737 117.916 41.5395 107.906 49.6041 96.7818C47.6678 95.7312 45.8333 94.5028 44.1245 93.1125C38.4996 104.517 28.7213 127.385 31.4805 127.966C33.1651 128.343 86.2676 118.284 90.8179 118.023C95.3681 117.761 101.603 114.896 101.603 114.896C102.01 115.324 102.45 115.719 102.92 116.077C103.375 113.289 102.116 110.384 99.3375 108.07Z" fill="white"/>
<path d="M101.632 114.886C101.632 114.886 104.478 118.014 105.902 116.59C107.325 115.167 103.336 107.79 101.351 105.515C99.3666 103.24 96.8107 102.388 95.3875 103.53C93.9643 104.673 85.1639 112.902 85.1639 112.902L50.9886 111.721L59.5373 100.539C53.9101 99.2479 48.6498 96.6956 44.1535 93.0742C38.5286 104.479 28.7504 127.346 31.5096 127.927C33.1942 128.305 86.2967 118.246 90.8469 117.984C95.3972 117.723 101.632 114.886 101.632 114.886Z" stroke="#444444" stroke-linecap="round" stroke-linejoin="round"/>
<path d="M99.9281 112.901L76.925 135.904L113.279 140.455L133.445 123.125L99.9281 112.901Z" fill="white"/>
<path opacity="0.36" d="M99.9281 112.901L76.925 135.904L113.279 140.455L133.445 123.125L99.9281 112.901Z" fill="#444444"/>
<path d="M99.9281 112.901L76.925 135.904L113.279 140.455L133.445 123.125L99.9281 112.901Z" stroke="#444444" stroke-linecap="round" stroke-linejoin="round"/>
<path d="M99.3666 108.07L99.9281 112.901L76.9251 135.904L75.7924 133.348L99.3666 108.07Z" fill="white" stroke="#444444" stroke-linecap="round" stroke-linejoin="round"/>
<path d="M99.928 112.901L133.445 123.125L135.159 119.717L99.3665 108.07L99.928 112.901Z" fill="white" stroke="#444444" stroke-linecap="round" stroke-linejoin="round"/>
<path d="M124.838 132.845C124.838 132.845 119.107 133.533 119.262 134.394C119.417 135.256 124.103 135.082 125.138 135.082C126.174 135.082 127.849 132.652 124.838 132.845Z" fill="white" stroke="#444444" stroke-linecap="round" stroke-linejoin="round"/>
<path d="M126.862 130.589C126.862 130.589 119.639 131.354 119.823 132.303C120.007 133.252 125.913 133.058 127.239 133.058C128.566 133.058 130.657 130.396 126.862 130.589Z" fill="white" stroke="#444444" stroke-linecap="round" stroke-linejoin="round"/>
<path d="M129.35 128.305C129.35 128.305 122.127 129.069 122.311 130.018C122.495 130.967 128.401 130.783 129.727 130.783C131.054 130.783 133.135 128.121 129.35 128.305Z" fill="white" stroke="#444444" stroke-linecap="round" stroke-linejoin="round"/>
<path d="M129.708 126.029C129.708 126.029 122.486 126.784 122.679 127.743C122.873 128.701 128.759 128.498 130.086 128.498C131.412 128.498 133.513 125.874 129.708 126.029Z" fill="white" stroke="#444444" stroke-linecap="round" stroke-linejoin="round"/>
<path d="M43.8243 152.498C43.8243 152.498 40.581 144.56 50.6884 137.705C60.7958 130.851 98.6211 126.514 107.644 130.125C116.667 133.736 150.949 161.88 150.949 161.88L146.612 166.207C146.612 166.207 120.269 166.924 109.087 164.039C97.9047 161.154 93.5286 159.76 93.5286 159.76C93.5286 159.76 84.1474 173.11 71.1549 173.468" fill="#444444"/>
<path d="M43.8243 152.498C43.8243 152.498 40.581 144.56 50.6884 137.705C60.7958 130.851 98.6211 126.514 107.644 130.125C116.667 133.736 150.949 161.88 150.949 161.88L146.612 166.207C146.612 166.207 120.269 166.924 109.087 164.039C97.9047 161.154 93.5286 159.76 93.5286 159.76C93.5286 159.76 84.1474 173.11 71.1549 173.468" stroke="#444444" stroke-linecap="round" stroke-linejoin="round"/>
<path d="M146.98 168.734C154.592 171.813 162.611 173.77 170.786 174.543C183.779 175.627 187.748 165.162 187.748 161.957C187.748 158.753 182.336 159.43 176.924 160.147C171.512 160.863 158.162 161.589 154.909 161.231C151.656 160.873 143.01 162.238 146.98 168.734Z" fill="white" stroke="#444444" stroke-linecap="round" stroke-linejoin="round"/>
<path d="M178.367 126.155C178.367 126.155 162.877 125.787 154.551 134.094C146.225 142.401 127.849 165.481 123.522 169.818C119.194 174.156 101.874 173.062 98.2629 172.723C94.6517 172.384 91.0406 169.818 85.9966 171.997C80.9525 174.175 74.4466 177.805 73.3623 182.462C72.278 187.119 71.5616 188.958 73.7205 189.317C75.8795 189.675 87.4391 187.835 93.5287 187.835C99.6183 187.835 114.46 186.751 123.125 184.234C131.79 181.717 156.68 166.904 166.42 161.134C176.159 155.364 193.528 144.898 196.374 135.159C199.221 125.419 191.679 123.251 187.351 123.967" fill="#444444"/>
<path d="M178.367 126.155C178.367 126.155 162.877 125.787 154.551 134.094C146.225 142.401 127.849 165.481 123.522 169.818C119.194 174.156 101.874 173.062 98.2629 172.723C94.6517 172.384 91.0406 169.818 85.9966 171.997C80.9525 174.175 74.4466 177.805 73.3623 182.462C72.278 187.119 71.5616 188.958 73.7205 189.317C75.8795 189.675 87.4391 187.835 93.5287 187.835C99.6183 187.835 114.46 186.751 123.125 184.234C131.79 181.717 156.68 166.904 166.42 161.134C176.159 155.364 193.528 144.898 196.374 135.159C199.221 125.419 191.679 123.251 187.351 123.967" stroke="#444444" stroke-linecap="round" stroke-linejoin="round"/>
<path d="M128.14 167.562C128.14 167.562 148.955 136.582 159.604 130.773C170.254 124.964 181.872 125.932 181.872 125.932" stroke="white" stroke-linecap="round" stroke-linejoin="round"/>
<path d="M120.124 171.638C113.463 173.778 101.225 172.994 98.2629 172.703C94.6517 172.345 91.0406 169.799 85.9966 171.977C80.9525 174.156 74.4466 177.786 73.3623 182.443C72.278 187.1 71.5616 188.939 73.7205 189.297C75.8795 189.656 87.4391 187.835 93.5287 187.835C99.6183 187.835 114.46 186.751 123.125 184.234C125.573 183.44 127.961 182.469 130.27 181.33C127.791 176.808 123.27 173.517 120.124 171.638Z" fill="white" stroke="#444444" stroke-linecap="round" stroke-linejoin="round"/>
<path d="M109.087 172.703C109.087 172.703 115.583 175.608 117.025 178.832C118.468 182.056 119.552 184.97 119.552 186.054C119.552 187.138 131.46 184.253 135.042 180.642C138.625 177.031 129.234 167.292 126.019 167.292C122.805 167.292 122.05 168.376 118.081 169.45C114.111 170.525 108.361 169.818 109.087 172.703Z" fill="white" stroke="#444444" stroke-linecap="round" stroke-linejoin="round"/>
<path d="M93.5288 159.759C93.5288 159.759 85.59 155.79 85.2318 150.736" stroke="white" stroke-linecap="round" stroke-linejoin="round"/>
<path d="M78.7646 171.435C85.0609 168.753 90.9317 165.165 96.1912 160.786C96.1912 160.786 111.681 165.626 121.847 165.626" stroke="white" stroke-linecap="round" stroke-linejoin="round"/>
<path d="M136.466 54.4646C134.761 53.5588 132.994 52.7727 131.18 52.112C127.201 50.6985 138.567 37.5899 135.72 31.0937C132.874 24.5975 127.201 22.0028 122.37 25.7011C122.37 25.7011 114.702 40.4653 111.865 43.3116C110.356 44.9662 108.509 46.2784 106.45 47.1601C104.391 48.0418 102.167 48.4725 99.9282 48.4234C98.8528 48.4364 97.7792 48.5173 96.714 48.6654C96.1718 54.9583 96.6075 70.0323 112.427 74.2728C127.327 78.2615 133.697 65.9661 136.466 54.4646Z" fill="white"/>
<path d="M122.37 25.7009C122.37 25.7009 114.702 40.465 111.865 43.3114C110.356 44.9659 108.509 46.2781 106.45 47.1598C104.391 48.0415 102.167 48.4723 99.9282 48.4231C98.8528 48.4362 97.7792 48.517 96.714 48.6652C96.6462 49.459 96.5978 50.3981 96.5881 51.4437C98.1759 55.5583 101.235 60.9218 106.57 62.0933C115.477 64.0295 121.837 57.6398 123.115 55.4131C124.258 53.3994 129.311 32.9426 127.956 24.0841C126.964 23.9666 125.959 24.0492 124.999 24.3269C124.04 24.6046 123.146 25.0718 122.37 25.7009Z" fill="#747CA5"/>
<path opacity="0.7" d="M122.37 25.7009C122.37 25.7009 114.702 40.465 111.865 43.3114C110.356 44.9659 108.509 46.2781 106.45 47.1598C104.391 48.0415 102.167 48.4723 99.9282 48.4231C98.8528 48.4362 97.7792 48.517 96.714 48.6652C96.6462 49.459 96.5978 50.3981 96.5881 51.4437C98.1759 55.5583 101.235 60.9218 106.57 62.0933C115.477 64.0295 121.837 57.6398 123.115 55.4131C124.258 53.3994 129.311 32.9426 127.956 24.0841C126.964 23.9666 125.959 24.0492 124.999 24.3269C124.04 24.6046 123.146 25.0718 122.37 25.7009Z" fill="white"/>
<path d="M136.466 54.4646C134.761 53.5588 132.994 52.7727 131.18 52.112C127.201 50.6985 138.567 37.5899 135.72 31.0937C132.874 24.5975 127.201 22.0028 122.37 25.7011C122.37 25.7011 114.702 40.4653 111.865 43.3116C110.356 44.9662 108.509 46.2784 106.45 47.1601C104.391 48.0418 102.167 48.4725 99.9282 48.4234C98.8528 48.4364 97.7792 48.5173 96.714 48.6654C96.1718 54.9583 96.6075 70.0323 112.427 74.2728C127.327 78.2615 133.697 65.9661 136.466 54.4646Z" stroke="#444444" stroke-linecap="round" stroke-linejoin="round"/>
<path d="M122.186 57.5725C122.186 57.5725 118.681 59.2184 117.539 64.3495" stroke="#444444" stroke-linecap="round" stroke-linejoin="round"/>
<path d="M130.889 8.09062C130.889 8.09062 132.593 2.40764 128.624 0.422953C124.654 -1.56174 109.309 4.39232 105.902 14.3351C102.494 24.2779 116.977 28.257 124.926 22.574C132.874 16.891 131.46 9.22335 131.46 9.22335L130.889 8.09062Z" fill="#444444" stroke="#444444" stroke-linecap="round" stroke-linejoin="round"/>
<path d="M105.902 14.335C105.902 14.335 102.697 22.9321 108.612 27.2693C114.528 31.6066 123.193 23.329 123.193 23.329" stroke="#444444" stroke-linecap="round" stroke-linejoin="round"/>
<path d="M122.66 35.3534C122.66 35.3534 116.125 28.2569 120.637 15.5065C125.148 2.75608 137.095 -0.671143 151.346 0.10337C169.257 1.07151 170.912 19.7663 170.351 24.3069C169.996 27.093 169.426 29.8476 168.647 32.5458C168.647 32.5458 175.743 41.3462 171.764 46.7484C167.785 52.1506 153.873 49.5851 148.471 42.1981C143.068 34.8112 126.891 37.0864 126.039 37.6576C125.187 38.2288 122.66 35.3534 122.66 35.3534Z" fill="#444444" stroke="#444444" stroke-linecap="round" stroke-linejoin="round"/>
<path d="M159.604 47.3195C158.791 46.9802 158.066 46.4604 157.484 45.7996" stroke="white" stroke-linecap="round" stroke-linejoin="round"/>
<path d="M155.49 31.6064C155.49 31.6064 169.276 42.6432 164.948 46.1866C164.534 46.5276 164.086 46.826 163.612 47.0773" stroke="white" stroke-linecap="round" stroke-linejoin="round"/>
<path d="M153.553 28.4505C158.172 28.3296 162.757 29.2737 166.952 31.2097" stroke="white" stroke-linecap="round" stroke-linejoin="round"/>
<path d="M153.544 23.3292L150.388 8.35205" stroke="white" stroke-linecap="round" stroke-linejoin="round"/>
<path d="M126.542 23.1742C126.01 22.9903 125.477 22.787 124.926 22.574" stroke="white" stroke-linecap="round" stroke-linejoin="round"/>
<path d="M152.363 21.3638C152.363 21.3638 144.618 27.2888 131.548 24.5683" stroke="white" stroke-linecap="round" stroke-linejoin="round"/>
<path d="M150.785 15.4482C150.785 15.4482 146.06 17.8105 138.199 17.8105" stroke="white" stroke-linecap="round" stroke-linejoin="round"/>
<path d="M119.814 35.9247C119.814 35.9247 118.962 43.8731 120.385 49.2754C121.808 54.6776 122.089 63.1972 127.162 64.0492C132.235 64.9011 149.032 55.5199 152.159 52.112C154.36 49.8233 155.582 46.7673 155.567 43.5924C155.567 41.8884 152.731 29.9609 152.731 29.9609C147.947 31.0452 143.095 31.8054 138.208 32.2361C132.919 32.7467 127.583 32.0652 122.592 30.2417C122.592 30.2417 118.7 32.7976 119.814 35.9247Z" fill="white"/>
<path d="M122.66 30.2415C122.66 30.2415 118.681 32.7973 119.814 35.9244C119.814 35.9244 118.962 43.8729 120.385 49.2751C121.547 53.6801 121.944 60.1667 124.838 62.8291C122.447 57.5914 121.218 44.8894 127.249 39.4291C133.929 33.3879 150.484 30.5222 150.484 30.5222V30.4254C148.035 30.9192 143.775 31.6646 138.305 32.1971C133.01 32.7245 127.663 32.0562 122.66 30.2415Z" fill="#747CA5"/>
<path opacity="0.7" d="M122.66 30.2415C122.66 30.2415 118.681 32.7973 119.814 35.9244C119.814 35.9244 118.962 43.8729 120.385 49.2751C121.547 53.6801 121.944 60.1667 124.838 62.8291C122.447 57.5914 121.218 44.8894 127.249 39.4291C133.929 33.3879 150.484 30.5222 150.484 30.5222V30.4254C148.035 30.9192 143.775 31.6646 138.305 32.1971C133.01 32.7245 127.663 32.0562 122.66 30.2415Z" fill="white"/>
<path d="M119.814 35.9247C119.814 35.9247 118.962 43.8731 120.385 49.2754C121.808 54.6776 122.089 63.1972 127.162 64.0492C132.235 64.9011 149.032 55.5199 152.159 52.112C154.36 49.8233 155.582 46.7673 155.567 43.5924C155.567 41.8884 152.731 29.9609 152.731 29.9609C147.947 31.0452 143.095 31.8054 138.208 32.2361C132.919 32.7467 127.583 32.0652 122.592 30.2417C122.592 30.2417 118.7 32.7976 119.814 35.9247Z" stroke="#444444" stroke-linecap="round" stroke-linejoin="round"/>
<path d="M123.222 33.0878C123.222 33.0878 123.512 25.9817 120.095 25.9817C116.677 25.9817 114.421 37.5994 120.956 39.0516" fill="white"/>
<path d="M123.222 33.0878C123.222 33.0878 123.512 25.9817 120.095 25.9817C116.677 25.9817 114.421 37.5994 120.956 39.0516" fill="#747CA5"/>
<path opacity="0.7" d="M123.222 33.0878C123.222 33.0878 123.512 25.9817 120.095 25.9817C116.677 25.9817 114.421 37.5994 120.956 39.0516" fill="white"/>
<path d="M123.222 33.0878C123.222 33.0878 123.512 25.9817 120.095 25.9817C116.677 25.9817 114.421 37.5994 120.956 39.0516" stroke="#444444" stroke-linecap="round" stroke-linejoin="round"/>
<path d="M144.84 45.5867C144.84 45.5867 138.063 56.3718 136.601 56.3718C135.139 56.3718 134.326 54.1063 134.326 54.1063" stroke="#444444" stroke-linecap="round" stroke-linejoin="round"/>
<path d="M132.032 41.3171C132.16 42.5776 132.756 43.7442 133.703 44.5866C134.649 45.429 135.877 45.886 137.144 45.8674" stroke="#444444" stroke-linecap="round" stroke-linejoin="round"/>
<path d="M144.24 50.1272C144.24 50.1272 144.53 53.8158 149.352 52.6831" stroke="#444444" stroke-linecap="round" stroke-linejoin="round"/>
<path d="M142.255 41.8884C142.255 41.8884 140.27 36.7766 135.72 36.4958" stroke="#444444" stroke-width="1.5" stroke-linecap="round" stroke-linejoin="round"/>
<path d="M152.198 47.8522C150.204 44.4444 146.234 45.2963 146.234 45.2963" stroke="#444444" stroke-width="1.5" stroke-linecap="round" stroke-linejoin="round"/>
<path d="M128.643 55.3262C128.714 56.0755 129.026 56.7818 129.532 57.3387C130.038 57.8956 130.712 58.2732 131.451 58.4145" stroke="#444444" stroke-linecap="round" stroke-linejoin="round"/>
<path d="M148.819 59.1988C148.819 59.1988 149.603 63.5264 154.328 54.8615C159.052 46.1967 152.769 29.9609 152.769 29.9609" stroke="#444444" stroke-linecap="round" stroke-linejoin="round"/>
<path opacity="0.13" d="M133.929 100.336C133.954 100.28 133.974 100.221 133.988 100.161L133.929 100.336Z" fill="#444444"/>
</g>
<defs>
<filter id="filter0_d" x="0.529053" y="-25.5" width="226.971" height="250.363" filterUnits="userSpaceOnUse" color-interpolation-filters="sRGB">
<feFlood flood-opacity="0" result="BackgroundImageFix"/>
<feColorMatrix in="SourceAlpha" type="matrix" values="0 0 0 0 0 0 0 0 0 0 0 0 0 0 0 0 0 0 127 0"/>
<feOffset dy="5"/>
<feGaussianBlur stdDeviation="15"/>
<feColorMatrix type="matrix" values="0 0 0 0 0 0 0 0 0 0 0 0 0 0 0 0 0 0 0.05 0"/>
<feBlend mode="normal" in2="BackgroundImageFix" result="effect1_dropShadow"/>
<feBlend mode="normal" in="SourceGraphic" in2="effect1_dropShadow" result="shape"/>
</filter>
</defs>
</svg>
