<svg width="200" height="182" viewBox="0 0 200 182" fill="none" xmlns="http://www.w3.org/2000/svg">
<g opacity="0.5" filter="url(#filter0_f)">
<path d="M150.75 10.3719L150.873 10.3708C151.037 10.396 151.193 10.4585 151.329 10.5533C151.464 10.6481 151.577 10.7727 151.657 10.9177L189.714 82.4302C189.818 82.6864 189.82 82.9728 189.72 83.2311C189.634 83.4895 189.451 83.7049 189.21 83.8315L184.973 85.9261C184.734 86.028 184.466 86.036 184.223 85.9485C183.979 85.861 183.777 85.6843 183.659 85.4541C183.54 85.2238 183.513 84.9571 183.584 84.7072C183.654 84.4574 183.816 84.2431 184.037 84.1073L187.332 82.4121L150.46 13.0856L88.9445 79.6837C88.8286 79.8115 88.6801 79.9053 88.515 79.9549L13.1627 103.99L50.9122 163.183L53.6625 162.952C53.7979 162.936 53.9349 162.948 54.0653 162.987C54.1956 163.027 54.3166 163.092 54.4209 163.179C54.5251 163.266 54.6105 163.374 54.6718 163.495C54.7332 163.617 54.7692 163.75 54.7777 163.886C54.7965 164.154 54.7087 164.42 54.5333 164.626C54.3579 164.831 54.109 164.959 53.8404 164.983L50.4538 165.283C50.2679 165.303 50.0801 165.271 49.9123 165.189C49.7445 165.107 49.6036 164.979 49.5061 164.819L10.7184 103.932C10.6486 103.792 10.6117 103.637 10.6107 103.481C10.6096 103.324 10.6445 103.169 10.7124 103.028C10.767 102.879 10.8538 102.744 10.9668 102.633C11.0797 102.522 11.2158 102.437 11.3653 102.385L87.7425 78.0524L149.992 10.6668C150.196 10.4726 150.468 10.3666 150.75 10.3719Z" fill="white"/>
<path d="M149.993 20.1753L150.157 20.1737C150.31 20.1997 150.455 20.2608 150.58 20.3523C150.706 20.4437 150.808 20.5629 150.879 20.7007L187.272 88.9638C187.387 89.1722 187.424 89.4148 187.377 89.6484C187.329 89.882 187.201 90.0915 187.014 90.2396C186.85 90.3849 170.063 104.368 162.222 123.584C154.988 141.315 142.397 150.206 128.537 147.382C128.393 147.352 128.257 147.292 128.14 147.204C128.022 147.117 127.925 147.004 127.856 146.875L93.9607 86.7616C93.863 86.5889 93.8177 86.3914 93.8301 86.193C93.8425 85.9947 93.9122 85.804 94.0307 85.6442C94.1492 85.4843 94.3114 85.3621 94.4977 85.2925C94.684 85.2228 94.8864 85.2086 95.0802 85.2517C95.6355 85.3695 108.858 87.9736 111.751 75.2334C114.864 61.608 128.773 43.9766 135.452 35.5126L136.185 34.5609C140.181 29.5157 144.564 24.7903 149.296 20.4284C149.49 20.2621 149.738 20.1721 149.993 20.1753ZM185.097 89.2312L149.744 22.868C145.468 26.9073 141.489 31.249 137.837 35.8593L137.104 36.8111C130.505 45.0894 116.739 62.5346 113.807 75.7065C111.193 87.1501 101.197 87.8215 96.7999 87.5352L129.428 145.484C142.052 147.806 153.579 139.378 160.348 122.822C167.502 105.296 181.892 92.0346 185.097 89.2312Z" fill="white"/>
<path d="M94.8755 85.3152C95.0582 85.3109 95.2385 85.3554 95.3979 85.4441C95.5574 85.5328 95.6901 85.6626 95.7825 85.8199L129.677 145.954C129.75 146.181 129.752 146.424 129.682 146.652C127.334 157.97 114.965 163.224 89.5837 163.468C67.4264 163.681 58.4994 170.812 58.4177 170.874C58.3042 170.967 58.1729 171.036 58.0318 171.076C57.8908 171.116 57.743 171.127 57.5978 171.108C57.4549 171.083 57.3187 171.029 57.198 170.949C57.0773 170.869 56.9746 170.764 56.8965 170.642L18.9097 109.747C18.773 109.519 18.7278 109.249 18.7833 108.989C18.8387 108.729 18.9907 108.5 19.2084 108.347C19.3111 108.346 21.9484 106.555 37.3993 101.518C48.1165 98.0056 59.9683 98.3638 69.5196 98.6415C73.3102 98.8186 77.1083 98.782 80.8961 98.5319C89.8855 97.7059 93.7717 86.0857 93.8128 86.0853C93.8747 85.895 93.9908 85.7267 94.1469 85.6012C94.3029 85.4756 94.4921 85.3983 94.6911 85.3786L94.8755 85.3152ZM127.69 146.61L95.0417 88.6817C93.3824 92.3943 89.078 99.8085 81.1764 100.542C77.3065 100.793 73.4263 100.83 69.5536 100.654C60.1871 100.374 48.5202 100.035 38.1307 103.421C32.4303 105.149 26.8289 107.192 21.3522 109.538L58.156 168.576C61.0185 166.68 70.5338 161.557 89.6725 161.372C113.616 161.121 125.373 156.49 127.69 146.61Z" fill="white"/>
<path d="M124.015 44.9465C124.244 44.9398 124.468 45.0098 124.653 45.1457C124.867 45.3167 125.005 45.5651 125.037 45.8374C125.07 46.1098 124.994 46.3844 124.827 46.6022C120.896 51.6099 117.784 56.0348 115.037 59.9427C112.011 64.7003 108.458 69.1024 104.446 73.0652C100.932 76.1356 97.0093 78.7031 92.7908 80.694C92.6686 80.7492 92.5368 80.7794 92.4029 80.7831C92.2691 80.7867 92.136 80.7635 92.0113 80.715C91.8867 80.6665 91.773 80.5936 91.6771 80.5005C91.5811 80.4074 91.5048 80.296 91.4525 80.1729C91.3465 79.9229 91.342 79.6412 91.44 79.3873C91.5379 79.1334 91.7306 78.9273 91.9773 78.8124C95.9993 76.8991 99.7419 74.4446 103.101 71.5174C106.965 67.6578 110.382 63.374 113.284 58.748C116.051 54.8193 119.184 50.4764 123.155 45.3244C123.258 45.1977 123.39 45.0973 123.539 45.0316C123.689 44.9659 123.852 44.9367 124.015 44.9465Z" fill="white"/>
<path d="M85.8905 83.6973C86.1165 83.6925 86.3363 83.7708 86.5081 83.9172C86.7239 84.0816 86.8654 84.3249 86.9019 84.594C86.9383 84.8631 86.8666 85.136 86.7024 85.3529C82.8554 90.0857 77.368 93.1971 71.3376 94.0648L67.6637 94.3877C51.9154 95.4038 36.4366 99.0228 21.8567 105.097C21.6013 105.198 21.3169 105.193 21.0658 105.084C20.8147 104.974 20.6176 104.77 20.5179 104.515C20.4182 104.26 20.4239 103.975 20.534 103.724C20.644 103.472 20.8492 103.275 21.1045 103.174C35.8744 97.0468 51.5436 93.3851 67.4857 92.3357L71.1391 92.013C76.601 91.1952 81.5683 88.3723 85.0717 84.0954C85.1716 83.974 85.2965 83.8755 85.4378 83.8068C85.5791 83.7381 85.7336 83.7007 85.8905 83.6973Z" fill="white"/>
<path d="M174.067 79.5825C174.268 79.5792 174.465 79.6346 174.634 79.7419C174.802 79.8491 174.936 80.0036 175.018 80.1862C175.1 80.3688 175.127 80.5716 175.095 80.7695C175.063 80.9675 174.974 81.1519 174.839 81.3001C167.911 89.3924 161.454 97.8749 155.498 106.706C144.006 123.369 135.529 130.207 126.227 130.297C125.954 130.3 125.692 130.194 125.498 130.003C125.305 129.813 125.195 129.552 125.193 129.28C125.191 129.008 125.298 128.746 125.489 128.551C125.68 128.357 125.941 128.246 126.213 128.243C134.755 128.161 142.762 121.574 153.806 105.531C159.823 96.6358 166.335 88.0848 173.31 79.9184C173.406 79.8129 173.523 79.7286 173.654 79.6708C173.784 79.613 173.925 79.5829 174.067 79.5825Z" fill="white"/>
<path d="M167.466 69.0287C167.724 69.0243 167.974 69.1172 168.166 69.2889C168.262 69.3817 168.339 69.4927 168.392 69.6156C168.445 69.7386 168.472 69.8709 168.473 70.0048C168.474 70.1386 168.448 70.2714 168.397 70.3953C168.346 70.5192 168.271 70.6318 168.176 70.7264C161.255 78.8362 154.791 87.3249 148.815 96.1527C137.343 112.816 128.866 119.654 119.543 119.744C119.272 119.741 119.014 119.634 118.821 119.444C118.628 119.255 118.517 118.998 118.51 118.727C118.508 118.455 118.614 118.193 118.805 117.998C118.997 117.804 119.257 117.693 119.529 117.69C128.093 117.608 136.078 111.021 147.144 94.9777C153.16 86.0826 159.672 77.5316 166.647 69.3652C166.75 69.2516 166.877 69.1625 167.019 69.1042C167.161 69.046 167.313 69.0202 167.466 69.0287Z" fill="white"/>
<path d="M160.865 58.4745C161.062 58.4748 161.254 58.5315 161.419 58.6378C161.584 58.7441 161.714 58.8955 161.796 59.0742C161.877 59.2529 161.905 59.4513 161.877 59.6458C161.848 59.8403 161.765 60.0228 161.636 60.1717C154.718 68.2765 148.255 76.7582 142.275 85.5775C130.804 102.261 122.327 109.1 113.004 109.189C112.733 109.187 112.474 109.079 112.282 108.89C112.089 108.7 111.977 108.443 111.97 108.173C111.968 107.9 112.075 107.638 112.266 107.444C112.457 107.249 112.718 107.138 112.99 107.136C121.553 107.053 129.539 100.466 140.584 84.4232C146.611 75.5301 153.129 66.9792 160.108 58.8104C160.203 58.7039 160.32 58.6189 160.451 58.561C160.581 58.5031 160.723 58.4736 160.865 58.4745Z" fill="white"/>
<path d="M154.264 47.9206C154.389 47.9168 154.514 47.9379 154.63 47.9826C154.747 48.0273 154.853 48.0948 154.944 48.181C155.04 48.2738 155.117 48.3848 155.169 48.5078C155.222 48.6307 155.25 48.7629 155.25 48.8968C155.251 49.0307 155.226 49.1635 155.174 49.2874C155.123 49.4113 155.048 49.5239 154.953 49.6185C148.027 57.717 141.563 66.1991 135.592 75.0243C124.121 91.708 115.643 98.5258 106.32 98.6156C106.048 98.6182 105.786 98.5126 105.592 98.3219C105.399 98.1312 105.289 97.8711 105.287 97.5987C105.285 97.3264 105.392 97.0642 105.583 96.8698C105.774 96.6754 106.034 96.5647 106.307 96.5621C114.87 96.4796 122.856 89.913 133.901 73.87C139.913 64.9663 146.432 56.4146 153.424 48.2573C153.529 48.1396 153.659 48.0479 153.805 47.9894C153.951 47.931 154.108 47.9074 154.264 47.9206Z" fill="white"/>
<path d="M114.807 133.241L115.156 133.238C115.409 133.333 115.616 133.522 115.732 133.766C115.849 134.01 115.866 134.289 115.781 134.546C115.781 134.649 112.169 144.254 99.4171 144.377C75.4937 144.607 59.9937 148.453 57.9816 154.695C57.8963 154.968 57.7061 155.197 57.4528 155.33C57.3274 155.396 57.1903 155.437 57.0492 155.45C56.9082 155.463 56.7661 155.448 56.631 155.407C56.4959 155.365 56.3704 155.297 56.2617 155.206C56.153 155.116 56.0633 155.005 55.9976 154.88C55.932 154.754 55.8916 154.617 55.879 154.476C55.8663 154.335 55.8815 154.193 55.9238 154.058C59.1233 144.169 84.4744 142.467 99.3007 142.324C110.636 142.215 113.622 134.218 113.805 133.867C113.887 133.673 114.028 133.508 114.207 133.396C114.387 133.284 114.596 133.23 114.807 133.241Z" fill="white"/>
<path d="M107.373 121.073C107.602 121.069 107.826 121.139 108.011 121.272C108.224 121.44 108.362 121.684 108.394 121.953C108.427 122.222 108.352 122.494 108.185 122.708C107.941 123.039 102.076 130.53 86.2028 130.683C69.1381 130.847 56.4946 134.974 48.6004 142.997C48.4098 143.187 48.1524 143.295 47.8837 143.298C47.6149 143.301 47.3562 143.198 47.163 143.011C47.0661 142.917 46.989 142.804 46.936 142.679C46.8831 142.555 46.8553 142.421 46.8544 142.285C46.8535 142.15 46.8795 142.015 46.9308 141.89C46.9821 141.764 47.0577 141.65 47.1533 141.553C55.4145 133.136 68.5488 128.696 86.1884 128.527C100.933 128.385 106.513 121.43 106.554 121.368C106.661 121.262 106.79 121.181 106.931 121.13C107.073 121.079 107.224 121.059 107.373 121.073Z" fill="white"/>
<path d="M102.385 108.86C102.534 108.864 102.681 108.897 102.817 108.959C102.94 109.013 103.05 109.091 103.143 109.189C103.235 109.286 103.306 109.401 103.353 109.527C103.4 109.653 103.421 109.787 103.415 109.922C103.409 110.056 103.376 110.188 103.319 110.309C101.442 113.861 98.6047 116.815 95.1309 118.831C91.6572 120.848 87.6883 121.847 83.6795 121.712C66.5121 121.877 51.5044 125.616 43.5151 131.689C43.4088 131.774 43.2866 131.836 43.1558 131.873C43.025 131.909 42.8883 131.918 42.7539 131.901C42.6195 131.883 42.4902 131.838 42.3737 131.769C42.2573 131.699 42.1561 131.607 42.0762 131.498C41.9166 131.28 41.8478 131.008 41.8843 130.74C41.9208 130.471 42.0597 130.227 42.272 130.058C54.2661 120.927 75.2259 119.74 83.6658 119.658C87.2843 119.793 90.8709 118.909 94.0175 117.107C97.1642 115.305 99.7444 112.657 101.465 109.465C101.543 109.286 101.672 109.133 101.835 109.026C101.999 108.919 102.19 108.861 102.385 108.86Z" fill="white"/>
<path d="M96.6157 99.9414C96.7104 99.9217 96.8081 99.9207 96.9031 99.9386C97.1621 100.017 97.3803 100.193 97.512 100.429C97.6438 100.665 97.6788 100.943 97.6098 101.205C97.4891 101.576 94.835 110.104 80.4045 111.085C65.3861 112.024 50.6203 115.449 36.7088 121.22C36.5843 121.293 36.4459 121.339 36.3025 121.356C36.1591 121.372 36.0139 121.358 35.8765 121.314C35.7391 121.27 35.6125 121.198 35.505 121.102C35.3974 121.007 35.3114 120.889 35.2525 120.757C35.1935 120.626 35.163 120.483 35.1629 120.339C35.1628 120.195 35.1931 120.052 35.2518 119.92C35.3106 119.788 35.3964 119.67 35.5038 119.573C35.6112 119.476 35.7377 119.403 35.875 119.359C50.0004 113.466 65.005 109.976 80.2676 109.032C93.1791 108.148 95.5339 100.938 95.6348 100.67C95.6992 100.46 95.8293 100.275 96.0058 100.144C96.1824 100.013 96.3961 99.9422 96.6157 99.9414Z" fill="white"/>
</g>
<defs>
<filter id="filter0_f" x="0" y="0" width="200.372" height="181.567" filterUnits="userSpaceOnUse" color-interpolation-filters="sRGB">
<feFlood flood-opacity="0" result="BackgroundImageFix"/>
<feBlend mode="normal" in="SourceGraphic" in2="BackgroundImageFix" result="shape"/>
<feGaussianBlur stdDeviation="5" result="effect1_foregroundBlur"/>
</filter>
</defs>
</svg>
