<svg width="202" height="158" viewBox="0 0 202 158" fill="none" xmlns="http://www.w3.org/2000/svg">
<g opacity="0.5" filter="url(#filter0_f)">
<path d="M123.013 11.4696C123.336 11.4636 123.654 11.5557 123.924 11.7336C124.194 11.9115 124.403 12.1668 124.524 12.4661C124.691 12.8672 124.693 13.318 124.531 13.7218C124.369 14.1257 124.054 14.4506 123.655 14.6271L39.1751 49.4587C37.4244 54.4363 35.94 59.5022 34.728 64.6352C34.3506 66.9219 35.7802 70.3327 38.9504 74.7053C40.1723 76.3895 80.6399 134.349 87.1806 143.679L184.352 93.4938C184.54 93.3905 184.746 93.3258 184.959 93.3034C185.172 93.2809 185.388 93.3013 185.592 93.3632C185.797 93.425 185.987 93.5272 186.151 93.6636C186.316 93.8 186.451 93.968 186.549 94.1575C186.651 94.3488 186.714 94.5587 186.734 94.7748C186.754 94.991 186.731 95.209 186.665 95.4162C186.599 95.6234 186.493 95.8156 186.352 95.9815C186.211 96.1473 186.038 96.2836 185.844 96.3822L87.4005 147.232C87.0472 147.41 86.6424 147.457 86.2583 147.365C85.8742 147.273 85.5357 147.048 85.3031 146.73C84.8078 146.05 37.5679 78.3715 36.3129 76.6224C33.9028 73.384 30.7941 68.4238 31.4855 64.1445C32.1768 59.8652 36.1239 48.2161 36.2846 47.7906C36.361 47.5643 36.4844 47.3564 36.6468 47.1806C36.8091 47.0048 37.0067 46.8651 37.2267 46.7704L122.392 11.6712C122.582 11.5597 122.794 11.4908 123.013 11.4696Z" fill="white"/>
<path d="M143.324 10.4591C143.589 10.4588 143.85 10.5228 144.085 10.6455C144.319 10.7683 144.52 10.9461 144.67 11.1637L148.569 16.7357C148.818 17.0923 148.915 17.5336 148.838 17.9624C148.761 18.3913 148.517 18.7727 148.158 19.0227C147.8 19.2726 147.357 19.3707 146.927 19.2954C146.497 19.22 146.115 18.9774 145.865 18.6208L141.967 13.0161C141.733 12.6603 141.645 12.2282 141.721 11.8087C141.797 11.3893 142.032 11.0145 142.377 10.7618C142.656 10.5693 142.986 10.4639 143.324 10.4591Z" fill="white"/>
<path d="M151.979 22.867C152.245 22.8667 152.506 22.9307 152.74 23.0535C152.975 23.1762 153.176 23.354 153.326 23.5716L191.085 77.7084C191.218 77.9006 191.309 78.1192 191.35 78.3496C191.391 78.5799 191.381 78.8165 191.323 79.0433C191.259 79.2703 191.149 79.4815 190.997 79.6628C190.846 79.8442 190.658 79.9917 190.446 80.0955L93.0218 126.695C92.6783 126.869 92.284 126.913 91.911 126.821C91.538 126.729 91.2111 126.506 90.9899 126.193L37.9255 53.5478C37.6746 53.1974 37.5704 52.7632 37.6347 52.3366C37.699 51.9101 37.9268 51.5246 38.2702 51.2614C38.4452 51.1346 38.6436 51.0435 38.8538 50.9934C39.0641 50.9433 39.2821 50.9352 39.4953 50.9695C39.7085 51.0038 39.9126 51.08 40.0958 51.1935C40.2791 51.3069 40.4379 51.4556 40.563 51.6307L92.8355 123.273L187.422 78.0045L150.753 25.4229C150.514 25.0656 150.426 24.6283 150.509 24.206C150.592 23.7837 150.839 23.4107 151.196 23.1681C151.424 22.9974 151.696 22.8932 151.979 22.867Z" fill="white"/>
<path d="M41.801 55.663L42.1282 55.6599C42.5498 55.7499 42.9196 55.9993 43.1599 56.3558C43.4002 56.7122 43.4923 57.1481 43.417 57.5718L41.259 67.6381L88.8051 137.075L172.943 95.0714L176.375 84.7318C176.521 84.3233 176.82 83.987 177.21 83.7944C177.6 83.6019 178.049 83.5682 178.462 83.7007C178.869 83.8377 179.205 84.1291 179.398 84.5117C179.59 84.8944 179.623 85.3376 179.49 85.7456L175.833 96.7396C175.697 97.1501 175.406 97.4921 175.022 97.6932L88.8615 140.63C88.5059 140.811 88.0964 140.857 87.71 140.759C87.3237 140.66 86.9872 140.424 86.7638 140.095L37.9294 68.8118C37.7985 68.6369 37.7068 68.4362 37.6602 68.2229C37.6136 68.0096 37.6134 67.7886 37.6594 67.5749L39.9437 56.8225C40.0557 56.4351 40.3074 56.1023 40.6503 55.8883C40.9932 55.6742 41.4031 55.5939 41.801 55.663Z" fill="white"/>
<path d="M46.7212 72.2494L54.0523 82.3548C54.0523 82.3548 44.7873 86.4884 36.5403 91.1666C28.2933 95.8448 18.2594 102.432 18.2594 102.432L25.0056 88.5706L10.5079 88.1558L46.7212 72.2494Z" fill="white"/>
</g>
<defs>
<filter id="filter0_f" x="-0.000976562" y="0.000244141" width="201.827" height="158.14" filterUnits="userSpaceOnUse" color-interpolation-filters="sRGB">
<feFlood flood-opacity="0" result="BackgroundImageFix"/>
<feBlend mode="normal" in="SourceGraphic" in2="BackgroundImageFix" result="shape"/>
<feGaussianBlur stdDeviation="5" result="effect1_foregroundBlur"/>
</filter>
</defs>
</svg>
