<svg width="110" height="110" viewBox="0 0 110 110" fill="none" xmlns="http://www.w3.org/2000/svg">
<g filter="url(#filter0_bd)">
<rect x="30" y="25" width="50" height="50" rx="25" fill="#747CA5"/>
<path fill-rule="evenodd" clip-rule="evenodd" d="M56.7676 50.0001L62.1339 44.6338C62.6226 44.1451 62.6226 43.3551 62.1339 42.8663C61.6451 42.3776 60.8551 42.3776 60.3664 42.8663L55.0001 48.2326L49.6339 42.8663C49.1451 42.3776 48.3551 42.3776 47.8664 42.8663C47.3776 43.3551 47.3776 44.1451 47.8664 44.6338L53.2326 50.0001L47.8664 55.3663C47.3776 55.8551 47.3776 56.6451 47.8664 57.1338C48.1101 57.3776 48.4301 57.5001 48.7501 57.5001C49.0701 57.5001 49.3901 57.3776 49.6339 57.1338L55.0001 51.7676L60.3664 57.1338C60.6101 57.3776 60.9301 57.5001 61.2501 57.5001C61.5701 57.5001 61.8901 57.3776 62.1339 57.1338C62.6226 56.6451 62.6226 55.8551 62.1339 55.3663L56.7676 50.0001Z" fill="white"/>
<mask id="mask0" mask-type="alpha" maskUnits="userSpaceOnUse" x="47" y="42" width="16" height="16">
<path fill-rule="evenodd" clip-rule="evenodd" d="M56.7676 50.0001L62.1339 44.6338C62.6226 44.1451 62.6226 43.3551 62.1339 42.8663C61.6451 42.3776 60.8551 42.3776 60.3664 42.8663L55.0001 48.2326L49.6339 42.8663C49.1451 42.3776 48.3551 42.3776 47.8664 42.8663C47.3776 43.3551 47.3776 44.1451 47.8664 44.6338L53.2326 50.0001L47.8664 55.3663C47.3776 55.8551 47.3776 56.6451 47.8664 57.1338C48.1101 57.3776 48.4301 57.5001 48.7501 57.5001C49.0701 57.5001 49.3901 57.3776 49.6339 57.1338L55.0001 51.7676L60.3664 57.1338C60.6101 57.3776 60.9301 57.5001 61.2501 57.5001C61.5701 57.5001 61.8901 57.3776 62.1339 57.1338C62.6226 56.6451 62.6226 55.8551 62.1339 55.3663L56.7676 50.0001Z" fill="white"/>
</mask>
<g mask="url(#mask0)">
<rect x="40" y="35" width="30" height="30" fill="white"/>
</g>
</g>
<defs>
<filter id="filter0_bd" x="-10" y="-15" width="130" height="130" filterUnits="userSpaceOnUse" color-interpolation-filters="sRGB">
<feFlood flood-opacity="0" result="BackgroundImageFix"/>
<feGaussianBlur in="BackgroundImage" stdDeviation="20"/>
<feComposite in2="SourceAlpha" operator="in" result="effect1_backgroundBlur"/>
<feColorMatrix in="SourceAlpha" type="matrix" values="0 0 0 0 0 0 0 0 0 0 0 0 0 0 0 0 0 0 127 0"/>
<feOffset dy="5"/>
<feGaussianBlur stdDeviation="15"/>
<feColorMatrix type="matrix" values="0 0 0 0 0 0 0 0 0 0 0 0 0 0 0 0 0 0 0.05 0"/>
<feBlend mode="normal" in2="effect1_backgroundBlur" result="effect2_dropShadow"/>
<feBlend mode="normal" in="SourceGraphic" in2="effect2_dropShadow" result="shape"/>
</filter>
</defs>
</svg>
